^D:\OPENCV_PROJECTS\CAPTIVE_CLASS\CAPTIVE_CLASS\CAPTIVE.CPP|D:\OPENCV_PROJECTS\CAPTIVE_CLASS\CAPTIVE_CLASS\CSVREADER.CPP|D:\OPENCV_PROJECTS\CAPTIVE_CLASS\CAPTIVE_CLASS\CSVWRITER.CPP|D:\OPENCV_PROJECTS\CAPTIVE_CLASS\CAPTIVE_CLASS\MAIN.CPP|D:\OPENCV_PROJECTS\CAPTIVE_CLASS\CAPTIVE_CLASS\MESH.CPP|D:\OPENCV_PROJECTS\CAPTIVE_CLASS\CAPTIVE_CLASS\MODEL.CPP|D:\OPENCV_PROJECTS\CAPTIVE_CLASS\CAPTIVE_CLASS\MODELREGISTRATION.CPP|D:\OPENCV_PROJECTS\CAPTIVE_CLASS\CAPTIVE_CLASS\MODEL_OBJ.CPP|D:\OPENCV_PROJECTS\CAPTIVE_CLASS\CAPTIVE_CLASS\PNPPROBLEM.CPP|D:\OPENCV_PROJECTS\CAPTIVE_CLASS\CAPTIVE_CLASS\ROBUSTMATCHER.CPP|D:\OPENCV_PROJECTS\CAPTIVE_CLASS\CAPTIVE_CLASS\UTILS.CPP
D:\OPENCV_PROJECTS\CAPTIVE_CLASS\CAPTIVE_CLASS\DEBUG\VC120.PDB
D:\OPENCV_PROJECTS\CAPTIVE_CLASS\CAPTIVE_CLASS\DEBUG\VC120.IDB
D:\OPENCV_PROJECTS\CAPTIVE_CLASS\CAPTIVE_CLASS\DEBUG\CAPTIVE.OBJ
D:\OPENCV_PROJECTS\CAPTIVE_CLASS\CAPTIVE_CLASS\DEBUG\CSVREADER.OBJ
D:\OPENCV_PROJECTS\CAPTIVE_CLASS\CAPTIVE_CLASS\DEBUG\CSVWRITER.OBJ
D:\OPENCV_PROJECTS\CAPTIVE_CLASS\CAPTIVE_CLASS\DEBUG\MAIN.OBJ
D:\OPENCV_PROJECTS\CAPTIVE_CLASS\CAPTIVE_CLASS\DEBUG\MESH.OBJ
D:\OPENCV_PROJECTS\CAPTIVE_CLASS\CAPTIVE_CLASS\DEBUG\MODEL.OBJ
D:\OPENCV_PROJECTS\CAPTIVE_CLASS\CAPTIVE_CLASS\DEBUG\MODELREGISTRATION.OBJ
D:\OPENCV_PROJECTS\CAPTIVE_CLASS\CAPTIVE_CLASS\DEBUG\MODEL_OBJ.OBJ
D:\OPENCV_PROJECTS\CAPTIVE_CLASS\CAPTIVE_CLASS\DEBUG\PNPPROBLEM.OBJ
D:\OPENCV_PROJECTS\CAPTIVE_CLASS\CAPTIVE_CLASS\DEBUG\ROBUSTMATCHER.OBJ
D:\OPENCV_PROJECTS\CAPTIVE_CLASS\CAPTIVE_CLASS\DEBUG\UTILS.OBJ
^D:\OPENCV_PROJECTS\CAPTIVE_CLASS\CAPTIVE_CLASS\CAPTIVE.CPP
D:\OPENCV_PROJECTS\CAPTIVE_CLASS\CAPTIVE_CLASS\DEBUG\VC120.PDB
D:\OPENCV_PROJECTS\CAPTIVE_CLASS\CAPTIVE_CLASS\DEBUG\VC120.IDB
D:\OPENCV_PROJECTS\CAPTIVE_CLASS\CAPTIVE_CLASS\DEBUG\CAPTIVE.OBJ
^D:\OPENCV_PROJECTS\CAPTIVE_CLASS\CAPTIVE_CLASS\CSVREADER.CPP
D:\OPENCV_PROJECTS\CAPTIVE_CLASS\CAPTIVE_CLASS\DEBUG\VC120.PDB
^D:\OPENCV_PROJECTS\CAPTIVE_CLASS\CAPTIVE_CLASS\CSVWRITER.CPP
D:\OPENCV_PROJECTS\CAPTIVE_CLASS\CAPTIVE_CLASS\DEBUG\VC120.PDB
^D:\OPENCV_PROJECTS\CAPTIVE_CLASS\CAPTIVE_CLASS\MAIN.CPP
D:\OPENCV_PROJECTS\CAPTIVE_CLASS\CAPTIVE_CLASS\DEBUG\VC120.PDB
D:\OPENCV_PROJECTS\CAPTIVE_CLASS\CAPTIVE_CLASS\DEBUG\VC120.IDB
D:\OPENCV_PROJECTS\CAPTIVE_CLASS\CAPTIVE_CLASS\DEBUG\MAIN.OBJ
^D:\OPENCV_PROJECTS\CAPTIVE_CLASS\CAPTIVE_CLASS\MESH.CPP
D:\OPENCV_PROJECTS\CAPTIVE_CLASS\CAPTIVE_CLASS\DEBUG\VC120.PDB
^D:\OPENCV_PROJECTS\CAPTIVE_CLASS\CAPTIVE_CLASS\MODEL.CPP
D:\OPENCV_PROJECTS\CAPTIVE_CLASS\CAPTIVE_CLASS\DEBUG\VC120.PDB
^D:\OPENCV_PROJECTS\CAPTIVE_CLASS\CAPTIVE_CLASS\MODELREGISTRATION.CPP
D:\OPENCV_PROJECTS\CAPTIVE_CLASS\CAPTIVE_CLASS\DEBUG\VC120.PDB
^D:\OPENCV_PROJECTS\CAPTIVE_CLASS\CAPTIVE_CLASS\MODEL_OBJ.CPP
D:\OPENCV_PROJECTS\CAPTIVE_CLASS\CAPTIVE_CLASS\DEBUG\VC120.PDB
^D:\OPENCV_PROJECTS\CAPTIVE_CLASS\CAPTIVE_CLASS\PNPPROBLEM.CPP
D:\OPENCV_PROJECTS\CAPTIVE_CLASS\CAPTIVE_CLASS\DEBUG\VC120.PDB
^D:\OPENCV_PROJECTS\CAPTIVE_CLASS\CAPTIVE_CLASS\ROBUSTMATCHER.CPP
D:\OPENCV_PROJECTS\CAPTIVE_CLASS\CAPTIVE_CLASS\DEBUG\VC120.PDB
^D:\OPENCV_PROJECTS\CAPTIVE_CLASS\CAPTIVE_CLASS\UTILS.CPP
D:\OPENCV_PROJECTS\CAPTIVE_CLASS\CAPTIVE_CLASS\DEBUG\VC120.PDB
