^D:\PROJECTS\CAPTIVE_CLASS\CAPTIVE_CLASS\DEBUG\CAPTIVE.OBJ|D:\PROJECTS\CAPTIVE_CLASS\CAPTIVE_CLASS\DEBUG\CSVREADER.OBJ|D:\PROJECTS\CAPTIVE_CLASS\CAPTIVE_CLASS\DEBUG\CSVWRITER.OBJ|D:\PROJECTS\CAPTIVE_CLASS\CAPTIVE_CLASS\DEBUG\MAIN.OBJ|D:\PROJECTS\CAPTIVE_CLASS\CAPTIVE_CLASS\DEBUG\MESH.OBJ|D:\PROJECTS\CAPTIVE_CLASS\CAPTIVE_CLASS\DEBUG\MODEL.OBJ|D:\PROJECTS\CAPTIVE_CLASS\CAPTIVE_CLASS\DEBUG\MODELREGISTRATION.OBJ|D:\PROJECTS\CAPTIVE_CLASS\CAPTIVE_CLASS\DEBUG\MODEL_OBJ.OBJ|D:\PROJECTS\CAPTIVE_CLASS\CAPTIVE_CLASS\DEBUG\PNPPROBLEM.OBJ|D:\PROJECTS\CAPTIVE_CLASS\CAPTIVE_CLASS\DEBUG\ROBUSTMATCHER.OBJ|D:\PROJECTS\CAPTIVE_CLASS\CAPTIVE_CLASS\DEBUG\UTILS.OBJ
/OUT:"D:\PROJECTS\CAPTIVE_CLASS\DEBUG\CAPTIVE_CLASS.EXE" /INCREMENTAL /NOLOGO /LIBPATH:D:\Opencv\opencv\build\x86\vc12\lib /LIBPATH:D:\freeglut\lib /LIBPATH:D:\tiny\lib opencv_ts300d.lib opencv_ts300.lib opencv_world300d.lib opencv_world300.lib tinyobjloader.lib kernel32.lib user32.lib gdi32.lib winspool.lib comdlg32.lib advapi32.lib shell32.lib ole32.lib oleaut32.lib uuid.lib odbc32.lib odbccp32.lib /MANIFEST /MANIFESTUAC:"level='asInvoker' uiAccess='false'" /manifest:embed /DEBUG /PDB:"D:\PROJECTS\CAPTIVE_CLASS\DEBUG\CAPTIVE_CLASS.PDB" /SUBSYSTEM:CONSOLE /TLBID:1 /DYNAMICBASE /NXCOMPAT /IMPLIB:"D:\PROJECTS\CAPTIVE_CLASS\DEBUG\CAPTIVE_CLASS.LIB" /MACHINE:X86 DEBUG\CAPTIVE.OBJDEBUG\CSVREADER.OBJDEBUG\CSVWRITER.OBJDEBUG\MAIN.OBJDEBUG\MESH.OBJDEBUG\MODEL.OBJDEBUG\MODELREGISTRATION.OBJDEBUG\MODEL_OBJ.OBJDEBUG\PNPPROBLEM.OBJDEBUG\ROBUSTMATCHER.OBJDEBUG\UTILS.OBJ
^D:\OPENCV_PROJECTS\CAPTIVE_CLASS\CAPTIVE_CLASS\DEBUG\CAPTIVE.OBJ|D:\OPENCV_PROJECTS\CAPTIVE_CLASS\CAPTIVE_CLASS\DEBUG\CSVREADER.OBJ|D:\OPENCV_PROJECTS\CAPTIVE_CLASS\CAPTIVE_CLASS\DEBUG\CSVWRITER.OBJ|D:\OPENCV_PROJECTS\CAPTIVE_CLASS\CAPTIVE_CLASS\DEBUG\MAIN.OBJ|D:\OPENCV_PROJECTS\CAPTIVE_CLASS\CAPTIVE_CLASS\DEBUG\MESH.OBJ|D:\OPENCV_PROJECTS\CAPTIVE_CLASS\CAPTIVE_CLASS\DEBUG\MODEL.OBJ|D:\OPENCV_PROJECTS\CAPTIVE_CLASS\CAPTIVE_CLASS\DEBUG\MODELREGISTRATION.OBJ|D:\OPENCV_PROJECTS\CAPTIVE_CLASS\CAPTIVE_CLASS\DEBUG\MODEL_OBJ.OBJ|D:\OPENCV_PROJECTS\CAPTIVE_CLASS\CAPTIVE_CLASS\DEBUG\PNPPROBLEM.OBJ|D:\OPENCV_PROJECTS\CAPTIVE_CLASS\CAPTIVE_CLASS\DEBUG\ROBUSTMATCHER.OBJ|D:\OPENCV_PROJECTS\CAPTIVE_CLASS\CAPTIVE_CLASS\DEBUG\UTILS.OBJ
/OUT:"D:\OPENCV_PROJECTS\CAPTIVE_CLASS\DEBUG\CAPTIVE_CLASS.EXE" /INCREMENTAL /NOLOGO /LIBPATH:D:\opencv3_0\opencv\build\x86\vc12\lib /LIBPATH:D:\freeglut\lib /LIBPATH:D:\tiny\lib opencv_ts300d.lib opencv_ts300.lib opencv_world300d.lib opencv_world300.lib tinyobjloader.lib kernel32.lib user32.lib gdi32.lib winspool.lib comdlg32.lib advapi32.lib shell32.lib ole32.lib oleaut32.lib uuid.lib odbc32.lib odbccp32.lib /MANIFEST /MANIFESTUAC:"level='asInvoker' uiAccess='false'" /manifest:embed /DEBUG /PDB:"D:\OPENCV_PROJECTS\CAPTIVE_CLASS\DEBUG\CAPTIVE_CLASS.PDB" /SUBSYSTEM:CONSOLE /TLBID:1 /DYNAMICBASE /NXCOMPAT /IMPLIB:"D:\OPENCV_PROJECTS\CAPTIVE_CLASS\DEBUG\CAPTIVE_CLASS.LIB" /MACHINE:X86 DEBUG\CAPTIVE.OBJDEBUG\CSVREADER.OBJDEBUG\CSVWRITER.OBJDEBUG\MAIN.OBJDEBUG\MESH.OBJDEBUG\MODEL.OBJDEBUG\MODELREGISTRATION.OBJDEBUG\MODEL_OBJ.OBJDEBUG\PNPPROBLEM.OBJDEBUG\ROBUSTMATCHER.OBJDEBUG\UTILS.OBJ
