^D:\OPENCV_PROJECTS\CAPTIVE_CLASS\CAPTIVE_CLASS\CAPTIVE.CPP
/c /I.\ /ID:\opencv3_0\opencv\build\x86\vc12\..\..\include /ID:\freeglut\include /ID:\tiny\include /Zi /nologo /W3 /WX- /sdl /O2 /Oi /Oy- /GL /D WIN32 /D NDEBUG /D _CONSOLE /D _LIB /D _UNICODE /D UNICODE /Gm- /EHsc /MD /GS /Gy /fp:precise /Zc:wchar_t /Zc:forScope /Fo"RELEASE\\" /Fd"RELEASE\VC120.PDB" /Gd /TP /analyze- D:\OPENCV_PROJECTS\CAPTIVE_CLASS\CAPTIVE_CLASS\CAPTIVE.CPP
^D:\OPENCV_PROJECTS\CAPTIVE_CLASS\CAPTIVE_CLASS\CSVREADER.CPP
/c /I.\ /ID:\opencv3_0\opencv\build\x86\vc12\..\..\include /ID:\freeglut\include /ID:\tiny\include /Zi /nologo /W3 /WX- /sdl /O2 /Oi /Oy- /GL /D WIN32 /D NDEBUG /D _CONSOLE /D _LIB /D _UNICODE /D UNICODE /Gm- /EHsc /MD /GS /Gy /fp:precise /Zc:wchar_t /Zc:forScope /Fo"RELEASE\\" /Fd"RELEASE\VC120.PDB" /Gd /TP /analyze- D:\OPENCV_PROJECTS\CAPTIVE_CLASS\CAPTIVE_CLASS\CSVREADER.CPP
^D:\OPENCV_PROJECTS\CAPTIVE_CLASS\CAPTIVE_CLASS\CSVWRITER.CPP
/c /I.\ /ID:\opencv3_0\opencv\build\x86\vc12\..\..\include /ID:\freeglut\include /ID:\tiny\include /Zi /nologo /W3 /WX- /sdl /O2 /Oi /Oy- /GL /D WIN32 /D NDEBUG /D _CONSOLE /D _LIB /D _UNICODE /D UNICODE /Gm- /EHsc /MD /GS /Gy /fp:precise /Zc:wchar_t /Zc:forScope /Fo"RELEASE\\" /Fd"RELEASE\VC120.PDB" /Gd /TP /analyze- D:\OPENCV_PROJECTS\CAPTIVE_CLASS\CAPTIVE_CLASS\CSVWRITER.CPP
^D:\OPENCV_PROJECTS\CAPTIVE_CLASS\CAPTIVE_CLASS\MAIN.CPP
/c /I.\ /ID:\opencv3_0\opencv\build\x86\vc12\..\..\include /ID:\freeglut\include /ID:\tiny\include /Zi /nologo /W3 /WX- /sdl /O2 /Oi /Oy- /GL /D WIN32 /D NDEBUG /D _CONSOLE /D _LIB /D _UNICODE /D UNICODE /Gm- /EHsc /MD /GS /Gy /fp:precise /Zc:wchar_t /Zc:forScope /Fo"RELEASE\\" /Fd"RELEASE\VC120.PDB" /Gd /TP /analyze- D:\OPENCV_PROJECTS\CAPTIVE_CLASS\CAPTIVE_CLASS\MAIN.CPP
^D:\OPENCV_PROJECTS\CAPTIVE_CLASS\CAPTIVE_CLASS\MESH.CPP
/c /I.\ /ID:\opencv3_0\opencv\build\x86\vc12\..\..\include /ID:\freeglut\include /ID:\tiny\include /Zi /nologo /W3 /WX- /sdl /O2 /Oi /Oy- /GL /D WIN32 /D NDEBUG /D _CONSOLE /D _LIB /D _UNICODE /D UNICODE /Gm- /EHsc /MD /GS /Gy /fp:precise /Zc:wchar_t /Zc:forScope /Fo"RELEASE\\" /Fd"RELEASE\VC120.PDB" /Gd /TP /analyze- D:\OPENCV_PROJECTS\CAPTIVE_CLASS\CAPTIVE_CLASS\MESH.CPP
^D:\OPENCV_PROJECTS\CAPTIVE_CLASS\CAPTIVE_CLASS\MODEL.CPP
/c /I.\ /ID:\opencv3_0\opencv\build\x86\vc12\..\..\include /ID:\freeglut\include /ID:\tiny\include /Zi /nologo /W3 /WX- /sdl /O2 /Oi /Oy- /GL /D WIN32 /D NDEBUG /D _CONSOLE /D _LIB /D _UNICODE /D UNICODE /Gm- /EHsc /MD /GS /Gy /fp:precise /Zc:wchar_t /Zc:forScope /Fo"RELEASE\\" /Fd"RELEASE\VC120.PDB" /Gd /TP /analyze- D:\OPENCV_PROJECTS\CAPTIVE_CLASS\CAPTIVE_CLASS\MODEL.CPP
^D:\OPENCV_PROJECTS\CAPTIVE_CLASS\CAPTIVE_CLASS\MODELREGISTRATION.CPP
/c /I.\ /ID:\opencv3_0\opencv\build\x86\vc12\..\..\include /ID:\freeglut\include /ID:\tiny\include /Zi /nologo /W3 /WX- /sdl /O2 /Oi /Oy- /GL /D WIN32 /D NDEBUG /D _CONSOLE /D _LIB /D _UNICODE /D UNICODE /Gm- /EHsc /MD /GS /Gy /fp:precise /Zc:wchar_t /Zc:forScope /Fo"RELEASE\\" /Fd"RELEASE\VC120.PDB" /Gd /TP /analyze- D:\OPENCV_PROJECTS\CAPTIVE_CLASS\CAPTIVE_CLASS\MODELREGISTRATION.CPP
^D:\OPENCV_PROJECTS\CAPTIVE_CLASS\CAPTIVE_CLASS\MODEL_OBJ.CPP
/c /I.\ /ID:\opencv3_0\opencv\build\x86\vc12\..\..\include /ID:\freeglut\include /ID:\tiny\include /Zi /nologo /W3 /WX- /sdl /O2 /Oi /Oy- /GL /D WIN32 /D NDEBUG /D _CONSOLE /D _LIB /D _UNICODE /D UNICODE /Gm- /EHsc /MD /GS /Gy /fp:precise /Zc:wchar_t /Zc:forScope /Fo"RELEASE\\" /Fd"RELEASE\VC120.PDB" /Gd /TP /analyze- D:\OPENCV_PROJECTS\CAPTIVE_CLASS\CAPTIVE_CLASS\MODEL_OBJ.CPP
^D:\OPENCV_PROJECTS\CAPTIVE_CLASS\CAPTIVE_CLASS\PNPPROBLEM.CPP
/c /I.\ /ID:\opencv3_0\opencv\build\x86\vc12\..\..\include /ID:\freeglut\include /ID:\tiny\include /Zi /nologo /W3 /WX- /sdl /O2 /Oi /Oy- /GL /D WIN32 /D NDEBUG /D _CONSOLE /D _LIB /D _UNICODE /D UNICODE /Gm- /EHsc /MD /GS /Gy /fp:precise /Zc:wchar_t /Zc:forScope /Fo"RELEASE\\" /Fd"RELEASE\VC120.PDB" /Gd /TP /analyze- D:\OPENCV_PROJECTS\CAPTIVE_CLASS\CAPTIVE_CLASS\PNPPROBLEM.CPP
^D:\OPENCV_PROJECTS\CAPTIVE_CLASS\CAPTIVE_CLASS\ROBUSTMATCHER.CPP
/c /I.\ /ID:\opencv3_0\opencv\build\x86\vc12\..\..\include /ID:\freeglut\include /ID:\tiny\include /Zi /nologo /W3 /WX- /sdl /O2 /Oi /Oy- /GL /D WIN32 /D NDEBUG /D _CONSOLE /D _LIB /D _UNICODE /D UNICODE /Gm- /EHsc /MD /GS /Gy /fp:precise /Zc:wchar_t /Zc:forScope /Fo"RELEASE\\" /Fd"RELEASE\VC120.PDB" /Gd /TP /analyze- D:\OPENCV_PROJECTS\CAPTIVE_CLASS\CAPTIVE_CLASS\ROBUSTMATCHER.CPP
^D:\OPENCV_PROJECTS\CAPTIVE_CLASS\CAPTIVE_CLASS\UTILS.CPP
/c /I.\ /ID:\opencv3_0\opencv\build\x86\vc12\..\..\include /ID:\freeglut\include /ID:\tiny\include /Zi /nologo /W3 /WX- /sdl /O2 /Oi /Oy- /GL /D WIN32 /D NDEBUG /D _CONSOLE /D _LIB /D _UNICODE /D UNICODE /Gm- /EHsc /MD /GS /Gy /fp:precise /Zc:wchar_t /Zc:forScope /Fo"RELEASE\\" /Fd"RELEASE\VC120.PDB" /Gd /TP /analyze- D:\OPENCV_PROJECTS\CAPTIVE_CLASS\CAPTIVE_CLASS\UTILS.CPP
